module gitlab.com/fubahr/pipe

go 1.17

require (
	github.com/google/uuid v1.3.0
	github.com/stretchr/testify v1.7.0
	google.golang.org/grpc v1.42.0
)

require (
	github.com/davecgh/go-spew v1.1.0 // indirect
	github.com/golang/protobuf v1.4.3 // indirect
	github.com/pmezard/go-difflib v1.0.0 // indirect
	golang.org/x/net v0.0.0-20200822124328-c89045814202 // indirect
	golang.org/x/sys v0.0.0-20200323222414-85ca7c5b95cd // indirect
	golang.org/x/text v0.3.0 // indirect
	google.golang.org/genproto v0.0.0-20200526211855-cb27e3aa2013 // indirect
	google.golang.org/protobuf v1.25.0 // indirect
	gopkg.in/yaml.v3 v3.0.0-20200313102051-9f266ea9e77c // indirect
)
